…
spreadmovies%>%pivot_longer(-c(Movie.Name,Jump.Count,Jump.scare.Rating,Netflix..US.,IMDB), 
                            names_to="Year", values_to="Director")%>%na.omit()

## # A tibble: 543 x 7
##    Movie.Name   Jump.Count Jump.scare.Rati… Netflix..US.  IMDB Year  Director   
##    <fct>             <int>            <dbl> <fct>        <dbl> <chr> <fct>      
##  1 31                    8              2.5 No             5.1 2016  Rob Zombie 
##  2 1408                  8              3   No             6.8 2007  Mikael Håf…
##  3 1917                 10              2.5 No             8.5 2019  Sam Mendes 
##  4 1922                  2              1   Yes            6.3 2017  Zak Hildit…
##  5 [Rec]                11              3.5 No             7.4 2007  Jaume Bala…
##  6 10 Cloverfi…          8              2.5 No             7.2 2016  Dan Tracht…
##  7 28 Days Lat…         10              3   No             7.6 2002  Danny Boyle
##  8 28 Weeks La…         17              3.5 No             7   2007  Juan Carlo…
##  9 30 Days of …          9              2.5 No             6.6 2007  David Slade
## 10 47 Meters D…         11              3   Yes            5.6 2017  Johannes R…
## # … with 533 more rows
…
First, I wanted to make sure that when the datasets were joined, there were more than 50 observations. So, I joined the different movie titles with the scary titles and got over 300 movies. Then, I used a left-join with the rated movie dataset on the left because it would allow me to start off with a neater dataset, in regards to the column positions. Before using na.omit() there were 5,648 entries, and after, there are 5,441 entries. I used na.omit() to delete any movies that were not in the other dataset because I want to compare scary movie raties to their regular ratings. Some scary movies were not in the regular rated dataset, so therefore I would not be able to compare the different ratings.

Wrangling

joinedmovies%>%group_by(Movie)%>%mutate("Mean Rating"=mean(Rating),
  "Mean Jump Scare Rating"=mean(Jump.scare.Rating),"Mean Jump Count"=mean(Jump.Count), 
  "Mean IMDB Rating"=mean(IMDB))%>%select(Movie, Year, "Mean Rating", "Mean Jump Scare Rating", 
                                          "Mean Jump Count", "Mean IMDB Rating", Genres, Director)%>%
                                           arrange(Movie)%>%distinct()

## # A tibble: 336 x 8
## # Groups:   Movie [328]
##    Movie Year  `Mean Rating` `Mean Jump Scar… `Mean Jump Coun… `Mean IMDB Rati…
##    <chr> <chr>         <dbl>            <dbl>            <dbl>            <dbl>
##  1 10 C… 2016           3.68              2.5                8              7.2
##  2 1408  2007           3.16              3                  8              6.8
##  3 28 D… 2002           3.97              3                 10              7.6
##  4 28 W… 2007           3.60              3.5               17              7  
##  5 30 D… 2007           3.18              2.5                9              6.6
##  6 31    2016           3.5               2.5                8              5.1
##  7 A Qu… 2018           2.75              4                 14              7.5
##  8 Aban… 2015           2                 3.5               21              5  
##  9 ABCs… 2012           3.5               0                  0              4.7
## 10 Abse… 2011           3.5               2                  8              5.8
## # … with 326 more rows, and 2 more variables: Genres <fct>, Director <fct>

joinedmovies%>%select(Movie, Director, Genres)%>%summarize_all(n_distinct)

##   Movie Director Genres
## 1   328      241     90

joinedmovies%>%group_by(Year, Movie)%>%filter(grepl("Horror|Thriller",Genres))%>%summarize(n=n(),
  "Mean Rating"=mean(Rating), "SD Rating"=sd(Rating), "Min Rating"=min(Rating), 
  "Max Rating"=max(Rating))%>%arrange(desc(`Mean Rating`))

## # A tibble: 327 x 7
## # Groups:   Year [52]
##    Year  Movie             n `Mean Rating` `SD Rating` `Min Rating` `Max Rating`
##    <chr> <chr>         <int>         <dbl>       <dbl>        <dbl>        <dbl>
##  1 2013  Only Lovers …     1          5         NA              5            5  
##  2 2015  Deathgasm         1          5         NA              5            5  
##  3 2016  The Girl wit…     1          5         NA              5            5  
##  4 2002  Dog Soldiers      3          4.67       0.577          4            5  
##  5 1968  Hour of the …     2          4.5        0              4.5          4.5
##  6 1987  Prince of Da…     1          4.5       NA              4.5          4.5
##  7 2011  Final Destin…     1          4.5       NA              4.5          4.5
##  8 2011  Kill List         1          4.5       NA              4.5          4.5
##  9 2013  Oculus            1          4.5       NA              4.5          4.5
## 10 2013  V/H/S/2           1          4.5       NA              4.5          4.5
## # … with 317 more rows

joinedmovies%>%group_by(Year, Movie, Director)%>%summarize("Mean Jump Count"=mean(Jump.Count), 
  "Mean Rating"=mean(Rating),"Mean Jump Scare Rating"=mean(Jump.scare.Rating),
  "Mean IMDB Rating"=mean(IMDB))%>%arrange(desc(`Mean Jump Count`))

## # A tibble: 336 x 7
## # Groups:   Year, Movie [336]
##    Year  Movie Director `Mean Jump Coun… `Mean Rating` `Mean Jump Scar…
##    <chr> <chr> <fct>               <dbl>         <dbl>            <dbl>
##  1 1987  Evil… Sam Rai…               27          4.04              4  
##  2 2007  Mess… Danny P…               27          2.5               4.5
##  3 2009  Haun… Peter C…               26          2.5               4.5
##  4 2003  Fred… Ronny Yu               24          2.33              4  
##  5 2010  Insi… James W…               24          2.67              5  
##  6 2000  Scre… Wes Cra…               23          2.67              4  
##  7 2004  Grud… Takashi…               23          2.3               4  
##  8 2009  Frid… Marcus …               23          3                 4  
##  9 2017  Anna… David F…               23          4                 4.5
## 10 2017  It    Andy Mu…               23          3.33              4  
## # … with 326 more rows, and 1 more variable: `Mean IMDB Rating` <dbl>

joinedmovies%>%group_by(Year, Movie, Director)%>%
  summarize(max.Rating=max(Rating), max.IMDB=max(IMDB))%>%
  arrange(desc(max.IMDB))

## # A tibble: 336 x 5
## # Groups:   Year, Movie [336]
##    Year  Movie                     Director           max.Rating max.IMDB
##    <chr> <chr>                     <fct>                   <dbl>    <dbl>
##  1 1991  Silence of the Lambs, The Jonathan Demme              5      8.6
##  2 1995  Seven                     David Fincher               5      8.6
##  3 1960  Psycho                    Alfred Hitchcock            5      8.5
##  4 1979  Alien                     Ridley Scott                5      8.4
##  5 1980  Shining, The              Stanley Kubrick             5      8.4
##  6 1986  Aliens                    James Cameron               5      8.4
##  7 2006  Pan's Labyrinth           Guillermo del Toro          5      8.2
##  8 1993  Jurassic Park             Steven Spielberg            5      8.1
##  9 1999  Sixth Sense, The          M. Night Shyamalan          5      8.1
## 10 2010  Shutter Island            Martin Scorsese             5      8.1
## # … with 326 more rows
…
